%YAML 1.1
%TAG !u! tag:unity3d.com,2011:
--- !u!29 &1
OcclusionCullingSettings:
  m_ObjectHideFlags: 0
  serializedVersion: 2
  m_OcclusionBakeSettings:
    smallestOccluder: 5
    smallestHole: 0.25
    backfaceThreshold: 100
  m_SceneGUID: 00000000000000000000000000000000
  m_OcclusionCullingData: {fileID: 0}
--- !u!104 &2
RenderSettings:
  m_ObjectHideFlags: 0
  serializedVersion: 9
  m_Fog: 0
  m_FogColor: {r: 0.5, g: 0.5, b: 0.5, a: 1}
  m_FogMode: 3
  m_FogDensity: 0.01
  m_LinearFogStart: 0
  m_LinearFogEnd: 300
  m_AmbientSkyColor: {r: 0.212, g: 0.227, b: 0.259, a: 1}
  m_AmbientEquatorColor: {r: 0.114, g: 0.125, b: 0.133, a: 1}
  m_AmbientGroundColor: {r: 0.047, g: 0.043, b: 0.035, a: 1}
  m_AmbientIntensity: 1
  m_AmbientMode: 3
  m_SubtractiveShadowColor: {r: 0.42, g: 0.478, b: 0.627, a: 1}
  m_SkyboxMaterial: {fileID: 0}
  m_HaloStrength: 0.5
  m_FlareStrength: 1
  m_FlareFadeSpeed: 3
  m_HaloTexture: {fileID: 0}
  m_SpotCookie: {fileID: 10001, guid: 0000000000000000e000000000000000, type: 0}
  m_DefaultReflectionMode: 0
  m_DefaultReflectionResolution: 128
  m_ReflectionBounces: 1
  m_ReflectionIntensity: 1
  m_CustomReflection: {fileID: 0}
  m_Sun: {fileID: 0}
  m_IndirectSpecularColor: {r: 0, g: 0, b: 0, a: 1}
  m_UseRadianceAmbientProbe: 0
--- !u!157 &3
LightmapSettings:
  m_ObjectHideFlags: 0
  serializedVersion: 12
  m_GIWorkflowMode: 1
  m_GISettings:
    serializedVersion: 2
    m_BounceScale: 1
    m_IndirectOutputScale: 1
    m_AlbedoBoost: 1
    m_EnvironmentLightingMode: 0
    m_EnableBakedLightmaps: 0
    m_EnableRealtimeLightmaps: 0
  m_LightmapEditorSettings:
    serializedVersion: 12
    m_Resolution: 2
    m_BakeResolution: 40
    m_AtlasSize: 1024
    m_AO: 0
    m_AOMaxDistance: 1
    m_CompAOExponent: 1
    m_CompAOExponentDirect: 0
    m_ExtractAmbientOcclusion: 0
    m_Padding: 2
    m_LightmapParameters: {fileID: 0}
    m_LightmapsBakeMode: 1
    m_TextureCompression: 1
    m_FinalGather: 0
    m_FinalGatherFiltering: 1
    m_FinalGatherRayCount: 256
    m_ReflectionCompression: 2
    m_MixedBakeMode: 2
    m_BakeBackend: 1
    m_PVRSampling: 1
    m_PVRDirectSampleCount: 32
    m_PVRSampleCount: 512
    m_PVRBounces: 2
    m_PVREnvironmentSampleCount: 256
    m_PVREnvironmentReferencePointCount: 2048
    m_PVRFilteringMode: 1
    m_PVRDenoiserTypeDirect: 1
    m_PVRDenoiserTypeIndirect: 1
    m_PVRDenoiserTypeAO: 1
    m_PVRFilterTypeDirect: 0
    m_PVRFilterTypeIndirect: 0
    m_PVRFilterTypeAO: 0
    m_PVREnvironmentMIS: 1
    m_PVRCulling: 1
    m_PVRFilteringGaussRadiusDirect: 1
    m_PVRFilteringGaussRadiusIndirect: 5
    m_PVRFilteringGaussRadiusAO: 2
    m_PVRFilteringAtrousPositionSigmaDirect: 0.5
    m_PVRFilteringAtrousPositionSigmaIndirect: 2
    m_PVRFilteringAtrousPositionSigmaAO: 1
    m_ExportTrainingData: 0
    m_TrainingDataDestination: TrainingData
    m_LightProbeSampleCountMultiplier: 4
  m_LightingDataAsset: {fileID: 0}
  m_LightingSettings: {fileID: 0}
--- !u!196 &4
NavMeshSettings:
  serializedVersion: 2
  m_ObjectHideFlags: 0
  m_BuildSettings:
    serializedVersion: 2
    agentTypeID: 0
    agentRadius: 0.5
    agentHeight: 2
    agentSlope: 45
    agentClimb: 0.4
    ledgeDropHeight: 0
    maxJumpAcrossDistance: 0
    minRegionArea: 2
    manualCellSize: 0
    cellSize: 0.16666667
    manualTileSize: 0
    tileSize: 256
    accuratePlacement: 0
    maxJobWorkers: 0
    preserveTilesOutsideBounds: 0
    debug:
      m_Flags: 0
  m_NavMeshData: {fileID: 0}
--- !u!1 &31621559
GameObject:
  m_ObjectHideFlags: 0
  m_CorrespondingSourceObject: {fileID: 0}
  m_PrefabInstance: {fileID: 0}
  m_PrefabAsset: {fileID: 0}
  serializedVersion: 6
  m_Component:
  - component: {fileID: 31621560}
  - component: {fileID: 31621562}
  - component: {fileID: 31621561}
  m_Layer: 5
  m_Name: HighScoresTitle
  m_TagString: Untagged
  m_Icon: {fileID: 0}
  m_NavMeshLayer: 0
  m_StaticEditorFlags: 0
  m_IsActive: 1
--- !u!224 &31621560
RectTransform:
  m_ObjectHideFlags: 0
  m_CorrespondingSourceObject: {fileID: 0}
  m_PrefabInstance: {fileID: 0}
  m_PrefabAsset: {fileID: 0}
  m_GameObject: {fileID: 31621559}
  m_LocalRotation: {x: -0, y: -0, z: -0, w: 1}
  m_LocalPosition: {x: 0, y: 0, z: 0}
  m_LocalScale: {x: 1, y: 1, z: 1}
  m_Children: []
  m_Father: {fileID: 1682269797}
  m_RootOrder: 2
  m_LocalEulerAnglesHint: {x: 0, y: 0, z: 0}
  m_AnchorMin: {x: 0.5, y: 1}
  m_AnchorMax: {x: 0.5, y: 1}
  m_AnchoredPosition: {x: 0, y: -400}
  m_SizeDelta: {x: 600, y: 100}
  m_Pivot: {x: 0.5, y: 1}
--- !u!114 &31621561
MonoBehaviour:
  m_ObjectHideFlags: 0
  m_CorrespondingSourceObject: {fileID: 0}
  m_PrefabInstance: {fileID: 0}
  m_PrefabAsset: {fileID: 0}
  m_GameObject: {fileID: 31621559}
  m_Enabled: 1
  m_EditorHideFlags: 0
  m_Script: {fileID: 11500000, guid: f4688fdb7df04437aeb418b961361dc5, type: 3}
  m_Name: 
  m_EditorClassIdentifier: 
  m_Material: {fileID: 0}
  m_Color: {r: 1, g: 1, b: 1, a: 1}
  m_RaycastTarget: 1
  m_RaycastPadding: {x: 0, y: 0, z: 0, w: 0}
  m_Maskable: 1
  m_OnCullStateChanged:
    m_PersistentCalls:
      m_Calls: []
  m_text: HIGH SCORES
  m_isRightToLeft: 0
  m_fontAsset: {fileID: 11400000, guid: 125cb55b44b24c4393181402bc6200e6, type: 2}
  m_sharedMaterial: {fileID: 2100000, guid: f2dcf029949142e28b974630369c8b4e, type: 2}
  m_fontSharedMaterials: []
  m_fontMaterial: {fileID: 0}
  m_fontMaterials: []
  m_fontColor32:
    serializedVersion: 2
    rgba: 4288610494
  m_fontColor: {r: 0.74509805, g: 0, b: 0.6243668, a: 1}
  m_enableVertexGradient: 0
  m_colorMode: 3
  m_fontColorGradient:
    topLeft: {r: 1, g: 1, b: 1, a: 1}
    topRight: {r: 1, g: 1, b: 1, a: 1}
    bottomLeft: {r: 1, g: 1, b: 1, a: 1}
    bottomRight: {r: 1, g: 1, b: 1, a: 1}
  m_fontColorGradientPreset: {fileID: 0}
  m_spriteAsset: {fileID: 0}
  m_tintAllSprites: 0
  m_StyleSheet: {fileID: 0}
  m_TextStyleHashCode: -1183493901
  m_overrideHtmlColors: 0
  m_faceColor:
    serializedVersion: 2
    rgba: 4294967295
  m_fontSize: 94
  m_fontSizeBase: 24
  m_fontWeight: 400
  m_enableAutoSizing: 1
  m_fontSizeMin: 18
  m_fontSizeMax: 100
  m_fontStyle: 1
  m_HorizontalAlignment: 2
  m_VerticalAlignment: 512
  m_textAlignment: 65535
  m_characterSpacing: 10
  m_wordSpacing: 0
  m_lineSpacing: 0
  m_lineSpacingMax: 0
  m_paragraphSpacing: 0
  m_charWidthMaxAdj: 0
  m_enableWordWrapping: 1
  m_wordWrappingRatios: 0.4
  m_overflowMode: 0
  m_linkedTextComponent: {fileID: 0}
  parentLinkedComponent: {fileID: 0}
  m_enableKerning: 1
  m_enableExtraPadding: 0
  checkPaddingRequired: 0
  m_isRichText: 1
  m_parseCtrlCharacters: 1
  m_isOrthographic: 1
  m_isCullingEnabled: 0
  m_horizontalMapping: 0
  m_verticalMapping: 0
  m_uvLineOffset: 0
  m_geometrySortingOrder: 0
  m_IsTextObjectScaleStatic: 0
  m_VertexBufferAutoSizeReduction: 0
  m_useMaxVisibleDescender: 1
  m_pageToDisplay: 1
  m_margin: {x: 0, y: 0, z: 0, w: 0}
  m_isUsingLegacyAnimationComponent: 0
  m_isVolumetricText: 0
  m_hasFontAssetChanged: 0
  m_baseMaterial: {fileID: 0}
  m_maskOffset: {x: 0, y: 0, z: 0, w: 0}
--- !u!222 &31621562
CanvasRenderer:
  m_ObjectHideFlags: 0
  m_CorrespondingSourceObject: {fileID: 0}
  m_PrefabInstance: {fileID: 0}
  m_PrefabAsset: {fileID: 0}
  m_GameObject: {fileID: 31621559}
  m_CullTransparentMesh: 1
--- !u!224 &88823918 stripped
RectTransform:
  m_CorrespondingSourceObject: {fileID: 3170790304445810151, guid: 19148bcfa67daa144b7d8b5c25b66bd8, type: 3}
  m_PrefabInstance: {fileID: 3170790304499735945}
  m_PrefabAsset: {fileID: 0}
--- !u!1 &322100316
GameObject:
  m_ObjectHideFlags: 0
  m_CorrespondingSourceObject: {fileID: 0}
  m_PrefabInstance: {fileID: 0}
  m_PrefabAsset: {fileID: 0}
  serializedVersion: 6
  m_Component:
  - component: {fileID: 322100317}
  - component: {fileID: 322100318}
  - component: {fileID: 322100319}
  m_Layer: 0
  m_Name: Managers
  m_TagString: Untagged
  m_Icon: {fileID: 0}
  m_NavMeshLayer: 0
  m_StaticEditorFlags: 0
  m_IsActive: 1
--- !u!4 &322100317
Transform:
  m_ObjectHideFlags: 0
  m_CorrespondingSourceObject: {fileID: 0}
  m_PrefabInstance: {fileID: 0}
  m_PrefabAsset: {fileID: 0}
  m_GameObject: {fileID: 322100316}
  m_LocalRotation: {x: 0, y: 0, z: 0, w: 1}
  m_LocalPosition: {x: 0, y: 0, z: 0}
  m_LocalScale: {x: 1, y: 1, z: 1}
  m_Children: []
  m_Father: {fileID: 0}
  m_RootOrder: 0
  m_LocalEulerAnglesHint: {x: 0, y: 0, z: 0}
--- !u!114 &322100318
MonoBehaviour:
  m_ObjectHideFlags: 0
  m_CorrespondingSourceObject: {fileID: 0}
  m_PrefabInstance: {fileID: 0}
  m_PrefabAsset: {fileID: 0}
  m_GameObject: {fileID: 322100316}
  m_Enabled: 1
  m_EditorHideFlags: 0
  m_Script: {fileID: 11500000, guid: 7b9d78a00f859ae4e9a94f2a3b9a04aa, type: 3}
  m_Name: 
  m_EditorClassIdentifier: 
  timedSectionScores: {fileID: 88823918}
  marathonSectionScores: {fileID: 618321841}
--- !u!114 &322100319
MonoBehaviour:
  m_ObjectHideFlags: 0
  m_CorrespondingSourceObject: {fileID: 0}
  m_PrefabInstance: {fileID: 0}
  m_PrefabAsset: {fileID: 0}
  m_GameObject: {fileID: 322100316}
  m_Enabled: 1
  m_EditorHideFlags: 0
  m_Script: {fileID: 11500000, guid: b066744d390177e419f272f153e264f2, type: 3}
  m_Name: 
  m_EditorClassIdentifier: 
  numberOfHighScores: 5
--- !u!1 &430065403
GameObject:
  m_ObjectHideFlags: 0
  m_CorrespondingSourceObject: {fileID: 0}
  m_PrefabInstance: {fileID: 0}
  m_PrefabAsset: {fileID: 0}
  serializedVersion: 6
  m_Component:
  - component: {fileID: 430065406}
  - component: {fileID: 430065405}
  - component: {fileID: 430065404}
  m_Layer: 0
  m_Name: EventSystem
  m_TagString: Untagged
  m_Icon: {fileID: 0}
  m_NavMeshLayer: 0
  m_StaticEditorFlags: 0
  m_IsActive: 1
--- !u!114 &430065404
MonoBehaviour:
  m_ObjectHideFlags: 0
  m_CorrespondingSourceObject: {fileID: 0}
  m_PrefabInstance: {fileID: 0}
  m_PrefabAsset: {fileID: 0}
  m_GameObject: {fileID: 430065403}
  m_Enabled: 1
  m_EditorHideFlags: 0
  m_Script: {fileID: 11500000, guid: 4f231c4fb786f3946a6b90b886c48677, type: 3}
  m_Name: 
  m_EditorClassIdentifier: 
  m_HorizontalAxis: Horizontal
  m_VerticalAxis: Vertical
  m_SubmitButton: Submit
  m_CancelButton: Cancel
  m_InputActionsPerSecond: 10
  m_RepeatDelay: 0.5
  m_ForceModuleActive: 0
--- !u!114 &430065405
MonoBehaviour:
  m_ObjectHideFlags: 0
  m_CorrespondingSourceObject: {fileID: 0}
  m_PrefabInstance: {fileID: 0}
  m_PrefabAsset: {fileID: 0}
  m_GameObject: {fileID: 430065403}
  m_Enabled: 1
  m_EditorHideFlags: 0
  m_Script: {fileID: 11500000, guid: 76c392e42b5098c458856cdf6ecaaaa1, type: 3}
  m_Name: 
  m_EditorClassIdentifier: 
  m_FirstSelected: {fileID: 0}
  m_sendNavigationEvents: 1
  m_DragThreshold: 10
--- !u!4 &430065406
Transform:
  m_ObjectHideFlags: 0
  m_CorrespondingSourceObject: {fileID: 0}
  m_PrefabInstance: {fileID: 0}
  m_PrefabAsset: {fileID: 0}
  m_GameObject: {fileID: 430065403}
  m_LocalRotation: {x: 0, y: 0, z: 0, w: 1}
  m_LocalPosition: {x: 0, y: 0, z: 0}
  m_LocalScale: {x: 1, y: 1, z: 1}
  m_Children: []
  m_Father: {fileID: 0}
  m_RootOrder: 3
  m_LocalEulerAnglesHint: {x: 0, y: 0, z: 0}
--- !u!1001 &618321839
PrefabInstance:
  m_ObjectHideFlags: 0
  serializedVersion: 2
  m_Modification:
    m_TransformParent: {fileID: 1144005053}
    m_Modifications:
    - target: {fileID: 3170790302555782460, guid: 19148bcfa67daa144b7d8b5c25b66bd8, type: 3}
      propertyPath: m_fontColor.b
      value: 0.062194232
      objectReference: {fileID: 0}
    - target: {fileID: 3170790302555782460, guid: 19148bcfa67daa144b7d8b5c25b66bd8, type: 3}
      propertyPath: m_fontColor.g
      value: 0.8396226
      objectReference: {fileID: 0}
    - target: {fileID: 3170790302555782460, guid: 19148bcfa67daa144b7d8b5c25b66bd8, type: 3}
      propertyPath: m_fontColor.r
      value: 0
      objectReference: {fileID: 0}
    - target: {fileID: 3170790302555782460, guid: 19148bcfa67daa144b7d8b5c25b66bd8, type: 3}
      propertyPath: m_fontColor32.rgba
      value: 4279293440
      objectReference: {fileID: 0}
    - target: {fileID: 3170790302555782461, guid: 19148bcfa67daa144b7d8b5c25b66bd8, type: 3}
      propertyPath: m_AnchorMax.y
      value: 0
      objectReference: {fileID: 0}
    - target: {fileID: 3170790302555782461, guid: 19148bcfa67daa144b7d8b5c25b66bd8, type: 3}
      propertyPath: m_AnchorMin.y
      value: 0
      objectReference: {fileID: 0}
    - target: {fileID: 3170790302555782461, guid: 19148bcfa67daa144b7d8b5c25b66bd8, type: 3}
      propertyPath: m_SizeDelta.y
      value: 0
      objectReference: {fileID: 0}
    - target: {fileID: 3170790302555782461, guid: 19148bcfa67daa144b7d8b5c25b66bd8, type: 3}
      propertyPath: m_AnchoredPosition.x
      value: 0
      objectReference: {fileID: 0}
    - target: {fileID: 3170790302555782461, guid: 19148bcfa67daa144b7d8b5c25b66bd8, type: 3}
      propertyPath: m_AnchoredPosition.y
      value: 0
      objectReference: {fileID: 0}
    - target: {fileID: 3170790302708483974, guid: 19148bcfa67daa144b7d8b5c25b66bd8, type: 3}
      propertyPath: m_fontColor.b
      value: 0.062194232
      objectReference: {fileID: 0}
    - target: {fileID: 3170790302708483974, guid: 19148bcfa67daa144b7d8b5c25b66bd8, type: 3}
      propertyPath: m_fontColor.g
      value: 0.8396226
      objectReference: {fileID: 0}
    - target: {fileID: 3170790302708483974, guid: 19148bcfa67daa144b7d8b5c25b66bd8, type: 3}
      propertyPath: m_fontColor.r
      value: 0
      objectReference: {fileID: 0}
    - target: {fileID: 3170790302708483974, guid: 19148bcfa67daa144b7d8b5c25b66bd8, type: 3}
      propertyPath: m_fontColor32.rgba
      value: 4279293440
      objectReference: {fileID: 0}
    - target: {fileID: 3170790302708483975, guid: 19148bcfa67daa144b7d8b5c25b66bd8, type: 3}
      propertyPath: m_AnchorMax.y
      value: 0
      objectReference: {fileID: 0}
    - target: {fileID: 3170790302708483975, guid: 19148bcfa67daa144b7d8b5c25b66bd8, type: 3}
      propertyPath: m_AnchorMin.y
      value: 0
      objectReference: {fileID: 0}
    - target: {fileID: 3170790302708483975, guid: 19148bcfa67daa144b7d8b5c25b66bd8, type: 3}
      propertyPath: m_SizeDelta.y
      value: 0
      objectReference: {fileID: 0}
    - target: {fileID: 3170790302708483975, guid: 19148bcfa67daa144b7d8b5c25b66bd8, type: 3}
      propertyPath: m_AnchoredPosition.x
      value: 0
      objectReference: {fileID: 0}
    - target: {fileID: 3170790302708483975, guid: 19148bcfa67daa144b7d8b5c25b66bd8, type: 3}
      propertyPath: m_AnchoredPosition.y
      value: 0
      objectReference: {fileID: 0}
    - target: {fileID: 3170790302760883277, guid: 19148bcfa67daa144b7d8b5c25b66bd8, type: 3}
      propertyPath: m_AnchorMax.y
      value: 0
      objectReference: {fileID: 0}
    - target: {fileID: 3170790302760883277, guid: 19148bcfa67daa144b7d8b5c25b66bd8, type: 3}
      propertyPath: m_AnchorMin.y
      value: 0
      objectReference: {fileID: 0}
    - target: {fileID: 3170790302760883277, guid: 19148bcfa67daa144b7d8b5c25b66bd8, type: 3}
      propertyPath: m_AnchoredPosition.x
      value: 0
      objectReference: {fileID: 0}
    - target: {fileID: 3170790302760883277, guid: 19148bcfa67daa144b7d8b5c25b66bd8, type: 3}
      propertyPath: m_AnchoredPosition.y
      value: 0
      objectReference: {fileID: 0}
    - target: {fileID: 3170790302827436140, guid: 19148bcfa67daa144b7d8b5c25b66bd8, type: 3}
      propertyPath: m_AnchorMax.y
      value: 0
      objectReference: {fileID: 0}
    - target: {fileID: 3170790302827436140, guid: 19148bcfa67daa144b7d8b5c25b66bd8, type: 3}
      propertyPath: m_AnchorMin.y
      value: 0
      objectReference: {fileID: 0}
    - target: {fileID: 3170790302827436140, guid: 19148bcfa67daa144b7d8b5c25b66bd8, type: 3}
      propertyPath: m_SizeDelta.y
      value: 0
      objectReference: {fileID: 0}
    - target: {fileID: 3170790302827436140, guid: 19148bcfa67daa144b7d8b5c25b66bd8, type: 3}
      propertyPath: m_AnchoredPosition.x
      value: 0
      objectReference: {fileID: 0}
    - target: {fileID: 3170790302827436140, guid: 19148bcfa67daa144b7d8b5c25b66bd8, type: 3}
      propertyPath: m_AnchoredPosition.y
      value: 0
      objectReference: {fileID: 0}
    - target: {fileID: 3170790302827436143, guid: 19148bcfa67daa144b7d8b5c25b66bd8, type: 3}
      propertyPath: m_fontColor.b
      value: 0.055435758
      objectReference: {fileID: 0}
    - target: {fileID: 3170790302827436143, guid: 19148bcfa67daa144b7d8b5c25b66bd8, type: 3}
      propertyPath: m_fontColor.g
      value: 0.6603774
      objectReference: {fileID: 0}
    - target: {fileID: 3170790302827436143, guid: 19148bcfa67daa144b7d8b5c25b66bd8, type: 3}
      propertyPath: m_fontColor.r
      value: 0.009344946
      objectReference: {fileID: 0}
    - target: {fileID: 3170790302827436143, guid: 19148bcfa67daa144b7d8b5c25b66bd8, type: 3}
      propertyPath: m_fontColor32.rgba
      value: 4279150594
      objectReference: {fileID: 0}
    - target: {fileID: 3170790302920063591, guid: 19148bcfa67daa144b7d8b5c25b66bd8, type: 3}
      propertyPath: m_AnchorMax.y
      value: 0
      objectReference: {fileID: 0}
    - target: {fileID: 3170790302920063591, guid: 19148bcfa67daa144b7d8b5c25b66bd8, type: 3}
      propertyPath: m_AnchorMin.y
      value: 0
      objectReference: {fileID: 0}
    - target: {fileID: 3170790302920063591, guid: 19148bcfa67daa144b7d8b5c25b66bd8, type: 3}
      propertyPath: m_AnchoredPosition.x
      value: 0
      objectReference: {fileID: 0}
    - target: {fileID: 3170790302920063591, guid: 19148bcfa67daa144b7d8b5c25b66bd8, type: 3}
      propertyPath: m_AnchoredPosition.y
      value: 0
      objectReference: {fileID: 0}
    - target: {fileID: 3170790303373253517, guid: 19148bcfa67daa144b7d8b5c25b66bd8, type: 3}
      propertyPath: m_AnchorMax.y
      value: 0
      objectReference: {fileID: 0}
    - target: {fileID: 3170790303373253517, guid: 19148bcfa67daa144b7d8b5c25b66bd8, type: 3}
      propertyPath: m_AnchorMin.y
      value: 0
      objectReference: {fileID: 0}
    - target: {fileID: 3170790303373253517, guid: 19148bcfa67daa144b7d8b5c25b66bd8, type: 3}
      propertyPath: m_AnchoredPosition.x
      value: 0
      objectReference: {fileID: 0}
    - target: {fileID: 3170790303457225850, guid: 19148bcfa67daa144b7d8b5c25b66bd8, type: 3}
      propertyPath: m_AnchorMax.y
      value: 0
      objectReference: {fileID: 0}
    - target: {fileID: 3170790303457225850, guid: 19148bcfa67daa144b7d8b5c25b66bd8, type: 3}
      propertyPath: m_AnchorMin.y
      value: 0
      objectReference: {fileID: 0}
    - target: {fileID: 3170790303457225850, guid: 19148bcfa67daa144b7d8b5c25b66bd8, type: 3}
      propertyPath: m_SizeDelta.y
      value: 0
      objectReference: {fileID: 0}
    - target: {fileID: 3170790303457225850, guid: 19148bcfa67daa144b7d8b5c25b66bd8, type: 3}
      propertyPath: m_AnchoredPosition.x
      value: 0
      objectReference: {fileID: 0}
    - target: {fileID: 3170790303457225850, guid: 19148bcfa67daa144b7d8b5c25b66bd8, type: 3}
      propertyPath: m_AnchoredPosition.y
      value: 0
      objectReference: {fileID: 0}
    - target: {fileID: 3170790303457225853, guid: 19148bcfa67daa144b7d8b5c25b66bd8, type: 3}
      propertyPath: m_fontColor.b
      value: 0.055435758
      objectReference: {fileID: 0}
    - target: {fileID: 3170790303457225853, guid: 19148bcfa67daa144b7d8b5c25b66bd8, type: 3}
      propertyPath: m_fontColor.g
      value: 0.6603774
      objectReference: {fileID: 0}
    - target: {fileID: 3170790303457225853, guid: 19148bcfa67daa144b7d8b5c25b66bd8, type: 3}
      propertyPath: m_fontColor.r
      value: 0.009344946
      objectReference: {fileID: 0}
    - target: {fileID: 3170790303457225853, guid: 19148bcfa67daa144b7d8b5c25b66bd8, type: 3}
      propertyPath: m_fontColor32.rgba
      value: 4279150594
      objectReference: {fileID: 0}
    - target: {fileID: 3170790303566112752, guid: 19148bcfa67daa144b7d8b5c25b66bd8, type: 3}
      propertyPath: m_Pivot.x
      value: 0.5
      objectReference: {fileID: 0}
    - target: {fileID: 3170790303566112752, guid: 19148bcfa67daa144b7d8b5c25b66bd8, type: 3}
      propertyPath: m_Pivot.y
      value: 0.5
      objectReference: {fileID: 0}
    - target: {fileID: 3170790303566112752, guid: 19148bcfa67daa144b7d8b5c25b66bd8, type: 3}
      propertyPath: m_RootOrder
      value: 1
      objectReference: {fileID: 0}
    - target: {fileID: 3170790303566112752, guid: 19148bcfa67daa144b7d8b5c25b66bd8, type: 3}
      propertyPath: m_AnchorMax.x
      value: 0
      objectReference: {fileID: 0}
    - target: {fileID: 3170790303566112752, guid: 19148bcfa67daa144b7d8b5c25b66bd8, type: 3}
      propertyPath: m_AnchorMax.y
      value: 0
      objectReference: {fileID: 0}
    - target: {fileID: 3170790303566112752, guid: 19148bcfa67daa144b7d8b5c25b66bd8, type: 3}
      propertyPath: m_AnchorMin.x
      value: 0
      objectReference: {fileID: 0}
    - target: {fileID: 3170790303566112752, guid: 19148bcfa67daa144b7d8b5c25b66bd8, type: 3}
      propertyPath: m_AnchorMin.y
      value: 0
      objectReference: {fileID: 0}
    - target: {fileID: 3170790303566112752, guid: 19148bcfa67daa144b7d8b5c25b66bd8, type: 3}
      propertyPath: m_SizeDelta.x
      value: 1080
      objectReference: {fileID: 0}
    - target: {fileID: 3170790303566112752, guid: 19148bcfa67daa144b7d8b5c25b66bd8, type: 3}
      propertyPath: m_SizeDelta.y
      value: 650
      objectReference: {fileID: 0}
    - target: {fileID: 3170790303566112752, guid: 19148bcfa67daa144b7d8b5c25b66bd8, type: 3}
      propertyPath: m_LocalPosition.x
      value: 0
      objectReference: {fileID: 0}
    - target: {fileID: 3170790303566112752, guid: 19148bcfa67daa144b7d8b5c25b66bd8, type: 3}
      propertyPath: m_LocalPosition.y
      value: 0
      objectReference: {fileID: 0}
    - target: {fileID: 3170790303566112752, guid: 19148bcfa67daa144b7d8b5c25b66bd8, type: 3}
      propertyPath: m_LocalPosition.z
      value: 0
      objectReference: {fileID: 0}
    - target: {fileID: 3170790303566112752, guid: 19148bcfa67daa144b7d8b5c25b66bd8, type: 3}
      propertyPath: m_LocalRotation.w
      value: 1
      objectReference: {fileID: 0}
    - target: {fileID: 3170790303566112752, guid: 19148bcfa67daa144b7d8b5c25b66bd8, type: 3}
      propertyPath: m_LocalRotation.x
      value: 0
      objectReference: {fileID: 0}
    - target: {fileID: 3170790303566112752, guid: 19148bcfa67daa144b7d8b5c25b66bd8, type: 3}
      propertyPath: m_LocalRotation.y
      value: 0
      objectReference: {fileID: 0}
    - target: {fileID: 3170790303566112752, guid: 19148bcfa67daa144b7d8b5c25b66bd8, type: 3}
      propertyPath: m_LocalRotation.z
      value: 0
      objectReference: {fileID: 0}
    - target: {fileID: 3170790303566112752, guid: 19148bcfa67daa144b7d8b5c25b66bd8, type: 3}
      propertyPath: m_AnchoredPosition.x
      value: 0
      objectReference: {fileID: 0}
    - target: {fileID: 3170790303566112752, guid: 19148bcfa67daa144b7d8b5c25b66bd8, type: 3}
      propertyPath: m_AnchoredPosition.y
      value: 0
      objectReference: {fileID: 0}
    - target: {fileID: 3170790303566112752, guid: 19148bcfa67daa144b7d8b5c25b66bd8, type: 3}
      propertyPath: m_LocalEulerAnglesHint.x
      value: 0
      objectReference: {fileID: 0}
    - target: {fileID: 3170790303566112752, guid: 19148bcfa67daa144b7d8b5c25b66bd8, type: 3}
      propertyPath: m_LocalEulerAnglesHint.y
      value: 0
      objectReference: {fileID: 0}
    - target: {fileID: 3170790303566112752, guid: 19148bcfa67daa144b7d8b5c25b66bd8, type: 3}
      propertyPath: m_LocalEulerAnglesHint.z
      value: 0
      objectReference: {fileID: 0}
    - target: {fileID: 3170790303566112753, guid: 19148bcfa67daa144b7d8b5c25b66bd8, type: 3}
      propertyPath: m_Name
      value: MarathonSection
      objectReference: {fileID: 0}
    - target: {fileID: 3170790303601721648, guid: 19148bcfa67daa144b7d8b5c25b66bd8, type: 3}
      propertyPath: m_fontColor.b
      value: 0.062194232
      objectReference: {fileID: 0}
    - target: {fileID: 3170790303601721648, guid: 19148bcfa67daa144b7d8b5c25b66bd8, type: 3}
      propertyPath: m_fontColor.g
      value: 0.8396226
      objectReference: {fileID: 0}
    - target: {fileID: 3170790303601721648, guid: 19148bcfa67daa144b7d8b5c25b66bd8, type: 3}
      propertyPath: m_fontColor.r
      value: 0
      objectReference: {fileID: 0}
    - target: {fileID: 3170790303601721648, guid: 19148bcfa67daa144b7d8b5c25b66bd8, type: 3}
      propertyPath: m_fontColor32.rgba
      value: 4279293440
      objectReference: {fileID: 0}
    - target: {fileID: 3170790303601721649, guid: 19148bcfa67daa144b7d8b5c25b66bd8, type: 3}
      propertyPath: m_AnchorMax.y
      value: 0
      objectReference: {fileID: 0}
    - target: {fileID: 3170790303601721649, guid: 19148bcfa67daa144b7d8b5c25b66bd8, type: 3}
      propertyPath: m_AnchorMin.y
      value: 0
      objectReference: {fileID: 0}
    - target: {fileID: 3170790303601721649, guid: 19148bcfa67daa144b7d8b5c25b66bd8, type: 3}
      propertyPath: m_SizeDelta.y
      value: 0
      objectReference: {fileID: 0}
    - target: {fileID: 3170790303601721649, guid: 19148bcfa67daa144b7d8b5c25b66bd8, type: 3}
      propertyPath: m_AnchoredPosition.x
      value: 0
      objectReference: {fileID: 0}
    - target: {fileID: 3170790303601721649, guid: 19148bcfa67daa144b7d8b5c25b66bd8, type: 3}
      propertyPath: m_AnchoredPosition.y
      value: 0
      objectReference: {fileID: 0}
    - target: {fileID: 3170790303757151172, guid: 19148bcfa67daa144b7d8b5c25b66bd8, type: 3}
      propertyPath: m_fontColor.b
      value: 0.055435758
      objectReference: {fileID: 0}
    - target: {fileID: 3170790303757151172, guid: 19148bcfa67daa144b7d8b5c25b66bd8, type: 3}
      propertyPath: m_fontColor.g
      value: 0.6603774
      objectReference: {fileID: 0}
    - target: {fileID: 3170790303757151172, guid: 19148bcfa67daa144b7d8b5c25b66bd8, type: 3}
      propertyPath: m_fontColor.r
      value: 0.009344946
      objectReference: {fileID: 0}
    - target: {fileID: 3170790303757151172, guid: 19148bcfa67daa144b7d8b5c25b66bd8, type: 3}
      propertyPath: m_fontColor32.rgba
      value: 4279150594
      objectReference: {fileID: 0}
    - target: {fileID: 3170790303757151173, guid: 19148bcfa67daa144b7d8b5c25b66bd8, type: 3}
      propertyPath: m_AnchorMax.y
      value: 0
      objectReference: {fileID: 0}
    - target: {fileID: 3170790303757151173, guid: 19148bcfa67daa144b7d8b5c25b66bd8, type: 3}
      propertyPath: m_AnchorMin.y
      value: 0
      objectReference: {fileID: 0}
    - target: {fileID: 3170790303757151173, guid: 19148bcfa67daa144b7d8b5c25b66bd8, type: 3}
      propertyPath: m_SizeDelta.y
      value: 0
      objectReference: {fileID: 0}
    - target: {fileID: 3170790303757151173, guid: 19148bcfa67daa144b7d8b5c25b66bd8, type: 3}
      propertyPath: m_AnchoredPosition.x
      value: 0
      objectReference: {fileID: 0}
    - target: {fileID: 3170790303757151173, guid: 19148bcfa67daa144b7d8b5c25b66bd8, type: 3}
      propertyPath: m_AnchoredPosition.y
      value: 0
      objectReference: {fileID: 0}
    - target: {fileID: 3170790303764894438, guid: 19148bcfa67daa144b7d8b5c25b66bd8, type: 3}
      propertyPath: m_fontColor.b
      value: 0.055435758
      objectReference: {fileID: 0}
    - target: {fileID: 3170790303764894438, guid: 19148bcfa67daa144b7d8b5c25b66bd8, type: 3}
      propertyPath: m_fontColor.g
      value: 0.6603774
      objectReference: {fileID: 0}
    - target: {fileID: 3170790303764894438, guid: 19148bcfa67daa144b7d8b5c25b66bd8, type: 3}
      propertyPath: m_fontColor.r
      value: 0.009344946
      objectReference: {fileID: 0}
    - target: {fileID: 3170790303764894438, guid: 19148bcfa67daa144b7d8b5c25b66bd8, type: 3}
      propertyPath: m_fontColor32.rgba
      value: 4279150594
      objectReference: {fileID: 0}
    - target: {fileID: 3170790303764894439, guid: 19148bcfa67daa144b7d8b5c25b66bd8, type: 3}
      propertyPath: m_AnchorMax.y
      value: 0
      objectReference: {fileID: 0}
    - target: {fileID: 3170790303764894439, guid: 19148bcfa67daa144b7d8b5c25b66bd8, type: 3}
      propertyPath: m_AnchorMin.y
      value: 0
      objectReference: {fileID: 0}
    - target: {fileID: 3170790303764894439, guid: 19148bcfa67daa144b7d8b5c25b66bd8, type: 3}
      propertyPath: m_SizeDelta.y
      value: 0
      objectReference: {fileID: 0}
    - target: {fileID: 3170790303764894439, guid: 19148bcfa67daa144b7d8b5c25b66bd8, type: 3}
      propertyPath: m_AnchoredPosition.x
      value: 0
      objectReference: {fileID: 0}
    - target: {fileID: 3170790303764894439, guid: 19148bcfa67daa144b7d8b5c25b66bd8, type: 3}
      propertyPath: m_AnchoredPosition.y
      value: 0
      objectReference: {fileID: 0}
    - target: {fileID: 3170790303780371862, guid: 19148bcfa67daa144b7d8b5c25b66bd8, type: 3}
      propertyPath: m_AnchorMax.y
      value: 0
      objectReference: {fileID: 0}
    - target: {fileID: 3170790303780371862, guid: 19148bcfa67daa144b7d8b5c25b66bd8, type: 3}
      propertyPath: m_AnchorMin.y
      value: 0
      objectReference: {fileID: 0}
    - target: {fileID: 3170790303780371862, guid: 19148bcfa67daa144b7d8b5c25b66bd8, type: 3}
      propertyPath: m_AnchoredPosition.x
      value: 0
      objectReference: {fileID: 0}
    - target: {fileID: 3170790303780371862, guid: 19148bcfa67daa144b7d8b5c25b66bd8, type: 3}
      propertyPath: m_AnchoredPosition.y
      value: 0
      objectReference: {fileID: 0}
    - target: {fileID: 3170790303799051240, guid: 19148bcfa67daa144b7d8b5c25b66bd8, type: 3}
      propertyPath: m_AnchorMax.y
      value: 0
      objectReference: {fileID: 0}
    - target: {fileID: 3170790303799051240, guid: 19148bcfa67daa144b7d8b5c25b66bd8, type: 3}
      propertyPath: m_AnchorMin.y
      value: 0
      objectReference: {fileID: 0}
    - target: {fileID: 3170790303799051240, guid: 19148bcfa67daa144b7d8b5c25b66bd8, type: 3}
      propertyPath: m_SizeDelta.y
      value: 0
      objectReference: {fileID: 0}
    - target: {fileID: 3170790303799051240, guid: 19148bcfa67daa144b7d8b5c25b66bd8, type: 3}
      propertyPath: m_AnchoredPosition.x
      value: 0
      objectReference: {fileID: 0}
    - target: {fileID: 3170790303799051240, guid: 19148bcfa67daa144b7d8b5c25b66bd8, type: 3}
      propertyPath: m_AnchoredPosition.y
      value: 0
      objectReference: {fileID: 0}
    - target: {fileID: 3170790303799051243, guid: 19148bcfa67daa144b7d8b5c25b66bd8, type: 3}
      propertyPath: m_fontColor.b
      value: 0.062194232
      objectReference: {fileID: 0}
    - target: {fileID: 3170790303799051243, guid: 19148bcfa67daa144b7d8b5c25b66bd8, type: 3}
      propertyPath: m_fontColor.g
      value: 0.8396226
      objectReference: {fileID: 0}
    - target: {fileID: 3170790303799051243, guid: 19148bcfa67daa144b7d8b5c25b66bd8, type: 3}
      propertyPath: m_fontColor.r
      value: 0
      objectReference: {fileID: 0}
    - target: {fileID: 3170790303799051243, guid: 19148bcfa67daa144b7d8b5c25b66bd8, type: 3}
      propertyPath: m_fontColor32.rgba
      value: 4279293440
      objectReference: {fileID: 0}
    - target: {fileID: 3170790303828745748, guid: 19148bcfa67daa144b7d8b5c25b66bd8, type: 3}
      propertyPath: m_AnchorMax.y
      value: 0
      objectReference: {fileID: 0}
    - target: {fileID: 3170790303828745748, guid: 19148bcfa67daa144b7d8b5c25b66bd8, type: 3}
      propertyPath: m_AnchorMin.y
      value: 0
      objectReference: {fileID: 0}
    - target: {fileID: 3170790303828745748, guid: 19148bcfa67daa144b7d8b5c25b66bd8, type: 3}
      propertyPath: m_SizeDelta.x
      value: 0
      objectReference: {fileID: 0}
    - target: {fileID: 3170790303828745748, guid: 19148bcfa67daa144b7d8b5c25b66bd8, type: 3}
      propertyPath: m_SizeDelta.y
      value: 0
      objectReference: {fileID: 0}
    - target: {fileID: 3170790303828745748, guid: 19148bcfa67daa144b7d8b5c25b66bd8, type: 3}
      propertyPath: m_AnchoredPosition.x
      value: 0
      objectReference: {fileID: 0}
    - target: {fileID: 3170790303828745751, guid: 19148bcfa67daa144b7d8b5c25b66bd8, type: 3}
      propertyPath: m_text
      value: MARATHON
      objectReference: {fileID: 0}
    - target: {fileID: 3170790303828745751, guid: 19148bcfa67daa144b7d8b5c25b66bd8, type: 3}
      propertyPath: m_fontColor.b
      value: 0.03315114
      objectReference: {fileID: 0}
    - target: {fileID: 3170790303828745751, guid: 19148bcfa67daa144b7d8b5c25b66bd8, type: 3}
      propertyPath: m_fontColor.g
      value: 0.4433962
      objectReference: {fileID: 0}
    - target: {fileID: 3170790303828745751, guid: 19148bcfa67daa144b7d8b5c25b66bd8, type: 3}
      propertyPath: m_fontColor.r
      value: 0
      objectReference: {fileID: 0}
    - target: {fileID: 3170790303828745751, guid: 19148bcfa67daa144b7d8b5c25b66bd8, type: 3}
      propertyPath: m_fontColor32.rgba
      value: 4278743296
      objectReference: {fileID: 0}
    - target: {fileID: 3170790303853519820, guid: 19148bcfa67daa144b7d8b5c25b66bd8, type: 3}
      propertyPath: m_fontColor.b
      value: 0.055435758
      objectReference: {fileID: 0}
    - target: {fileID: 3170790303853519820, guid: 19148bcfa67daa144b7d8b5c25b66bd8, type: 3}
      propertyPath: m_fontColor.g
      value: 0.6603774
      objectReference: {fileID: 0}
    - target: {fileID: 3170790303853519820, guid: 19148bcfa67daa144b7d8b5c25b66bd8, type: 3}
      propertyPath: m_fontColor.r
      value: 0.009344946
      objectReference: {fileID: 0}
    - target: {fileID: 3170790303853519820, guid: 19148bcfa67daa144b7d8b5c25b66bd8, type: 3}
      propertyPath: m_fontColor32.rgba
      value: 4279150594
      objectReference: {fileID: 0}
    - target: {fileID: 3170790303853519821, guid: 19148bcfa67daa144b7d8b5c25b66bd8, type: 3}
      propertyPath: m_AnchorMax.y
      value: 0
      objectReference: {fileID: 0}
    - target: {fileID: 3170790303853519821, guid: 19148bcfa67daa144b7d8b5c25b66bd8, type: 3}
      propertyPath: m_AnchorMin.y
      value: 0
      objectReference: {fileID: 0}
    - target: {fileID: 3170790303853519821, guid: 19148bcfa67daa144b7d8b5c25b66bd8, type: 3}
      propertyPath: m_SizeDelta.y
      value: 0
      objectReference: {fileID: 0}
    - target: {fileID: 3170790303853519821, guid: 19148bcfa67daa144b7d8b5c25b66bd8, type: 3}
      propertyPath: m_AnchoredPosition.x
      value: 0
      objectReference: {fileID: 0}
    - target: {fileID: 3170790303853519821, guid: 19148bcfa67daa144b7d8b5c25b66bd8, type: 3}
      propertyPath: m_AnchoredPosition.y
      value: 0
      objectReference: {fileID: 0}
    - target: {fileID: 3170790304420650368, guid: 19148bcfa67daa144b7d8b5c25b66bd8, type: 3}
      propertyPath: m_fontColor.b
      value: 0.062194232
      objectReference: {fileID: 0}
    - target: {fileID: 3170790304420650368, guid: 19148bcfa67daa144b7d8b5c25b66bd8, type: 3}
      propertyPath: m_fontColor.g
      value: 0.8396226
      objectReference: {fileID: 0}
    - target: {fileID: 3170790304420650368, guid: 19148bcfa67daa144b7d8b5c25b66bd8, type: 3}
      propertyPath: m_fontColor.r
      value: 0
      objectReference: {fileID: 0}
    - target: {fileID: 3170790304420650368, guid: 19148bcfa67daa144b7d8b5c25b66bd8, type: 3}
      propertyPath: m_fontColor32.rgba
      value: 4279293440
      objectReference: {fileID: 0}
    - target: {fileID: 3170790304420650369, guid: 19148bcfa67daa144b7d8b5c25b66bd8, type: 3}
      propertyPath: m_AnchorMax.y
      value: 0
      objectReference: {fileID: 0}
    - target: {fileID: 3170790304420650369, guid: 19148bcfa67daa144b7d8b5c25b66bd8, type: 3}
      propertyPath: m_AnchorMin.y
      value: 0
      objectReference: {fileID: 0}
    - target: {fileID: 3170790304420650369, guid: 19148bcfa67daa144b7d8b5c25b66bd8, type: 3}
      propertyPath: m_SizeDelta.y
      value: 0
      objectReference: {fileID: 0}
    - target: {fileID: 3170790304420650369, guid: 19148bcfa67daa144b7d8b5c25b66bd8, type: 3}
      propertyPath: m_AnchoredPosition.x
      value: 0
      objectReference: {fileID: 0}
    - target: {fileID: 3170790304420650369, guid: 19148bcfa67daa144b7d8b5c25b66bd8, type: 3}
      propertyPath: m_AnchoredPosition.y
      value: 0
      objectReference: {fileID: 0}
    - target: {fileID: 3170790304445810151, guid: 19148bcfa67daa144b7d8b5c25b66bd8, type: 3}
      propertyPath: m_AnchorMax.y
      value: 0
      objectReference: {fileID: 0}
    - target: {fileID: 3170790304445810151, guid: 19148bcfa67daa144b7d8b5c25b66bd8, type: 3}
      propertyPath: m_AnchorMin.y
      value: 0
      objectReference: {fileID: 0}
    - target: {fileID: 3170790304445810151, guid: 19148bcfa67daa144b7d8b5c25b66bd8, type: 3}
      propertyPath: m_SizeDelta.x
      value: 0
      objectReference: {fileID: 0}
    - target: {fileID: 3170790304445810151, guid: 19148bcfa67daa144b7d8b5c25b66bd8, type: 3}
      propertyPath: m_SizeDelta.y
      value: 0
      objectReference: {fileID: 0}
    - target: {fileID: 3170790304445810151, guid: 19148bcfa67daa144b7d8b5c25b66bd8, type: 3}
      propertyPath: m_AnchoredPosition.x
      value: 0
      objectReference: {fileID: 0}
    - target: {fileID: 3170790304445810151, guid: 19148bcfa67daa144b7d8b5c25b66bd8, type: 3}
      propertyPath: m_AnchoredPosition.y
      value: 0
      objectReference: {fileID: 0}
    - target: {fileID: 3170790304518705313, guid: 19148bcfa67daa144b7d8b5c25b66bd8, type: 3}
      propertyPath: m_AnchorMax.y
      value: 0
      objectReference: {fileID: 0}
    - target: {fileID: 3170790304518705313, guid: 19148bcfa67daa144b7d8b5c25b66bd8, type: 3}
      propertyPath: m_AnchorMin.y
      value: 0
      objectReference: {fileID: 0}
    - target: {fileID: 3170790304518705313, guid: 19148bcfa67daa144b7d8b5c25b66bd8, type: 3}
      propertyPath: m_AnchoredPosition.x
      value: 0
      objectReference: {fileID: 0}
    - target: {fileID: 3170790304518705313, guid: 19148bcfa67daa144b7d8b5c25b66bd8, type: 3}
      propertyPath: m_AnchoredPosition.y
      value: 0
      objectReference: {fileID: 0}
    m_RemovedComponents: []
  m_SourcePrefab: {fileID: 100100000, guid: 19148bcfa67daa144b7d8b5c25b66bd8, type: 3}
--- !u!224 &618321840 stripped
RectTransform:
  m_CorrespondingSourceObject: {fileID: 3170790303566112752, guid: 19148bcfa67daa144b7d8b5c25b66bd8, type: 3}
  m_PrefabInstance: {fileID: 618321839}
  m_PrefabAsset: {fileID: 0}
--- !u!224 &618321841 stripped
RectTransform:
  m_CorrespondingSourceObject: {fileID: 3170790304445810151, guid: 19148bcfa67daa144b7d8b5c25b66bd8, type: 3}
  m_PrefabInstance: {fileID: 618321839}
  m_PrefabAsset: {fileID: 0}
--- !u!224 &968505977 stripped
RectTransform:
  m_CorrespondingSourceObject: {fileID: 3170790303566112752, guid: 19148bcfa67daa144b7d8b5c25b66bd8, type: 3}
  m_PrefabInstance: {fileID: 3170790304499735945}
  m_PrefabAsset: {fileID: 0}
--- !u!1 &1112868049
GameObject:
  m_ObjectHideFlags: 0
  m_CorrespondingSourceObject: {fileID: 0}
  m_PrefabInstance: {fileID: 0}
  m_PrefabAsset: {fileID: 0}
  serializedVersion: 6
  m_Component:
  - component: {fileID: 1112868052}
  - component: {fileID: 1112868051}
  - component: {fileID: 1112868050}
  m_Layer: 0
  m_Name: Main Camera
  m_TagString: MainCamera
  m_Icon: {fileID: 0}
  m_NavMeshLayer: 0
  m_StaticEditorFlags: 0
  m_IsActive: 1
--- !u!81 &1112868050
AudioListener:
  m_ObjectHideFlags: 0
  m_CorrespondingSourceObject: {fileID: 0}
  m_PrefabInstance: {fileID: 0}
  m_PrefabAsset: {fileID: 0}
  m_GameObject: {fileID: 1112868049}
  m_Enabled: 1
--- !u!20 &1112868051
Camera:
  m_ObjectHideFlags: 0
  m_CorrespondingSourceObject: {fileID: 0}
  m_PrefabInstance: {fileID: 0}
  m_PrefabAsset: {fileID: 0}
  m_GameObject: {fileID: 1112868049}
  m_Enabled: 1
  serializedVersion: 2
  m_ClearFlags: 2
  m_BackGroundColor: {r: 0, g: 0, b: 0, a: 0}
  m_projectionMatrixMode: 1
  m_GateFitMode: 2
  m_FOVAxisMode: 0
  m_SensorSize: {x: 36, y: 24}
  m_LensShift: {x: 0, y: 0}
  m_FocalLength: 50
  m_NormalizedViewPortRect:
    serializedVersion: 2
    x: 0
    y: 0
    width: 1
    height: 1
  near clip plane: 0.3
  far clip plane: 1000
  field of view: 60
  orthographic: 1
  orthographic size: 5
  m_Depth: -1
  m_CullingMask:
    serializedVersion: 2
    m_Bits: 4294967295
  m_RenderingPath: -1
  m_TargetTexture: {fileID: 0}
  m_TargetDisplay: 0
  m_TargetEye: 3
  m_HDR: 1
  m_AllowMSAA: 1
  m_AllowDynamicResolution: 0
  m_ForceIntoRT: 0
  m_OcclusionCulling: 1
  m_StereoConvergence: 10
  m_StereoSeparation: 0.022
--- !u!4 &1112868052
Transform:
  m_ObjectHideFlags: 0
  m_CorrespondingSourceObject: {fileID: 0}
  m_PrefabInstance: {fileID: 0}
  m_PrefabAsset: {fileID: 0}
  m_GameObject: {fileID: 1112868049}
  m_LocalRotation: {x: 0, y: 0, z: 0, w: 1}
  m_LocalPosition: {x: 0, y: 0, z: -10}
  m_LocalScale: {x: 1, y: 1, z: 1}
  m_Children: []
  m_Father: {fileID: 0}
  m_RootOrder: 1
  m_LocalEulerAnglesHint: {x: 0, y: 0, z: 0}
--- !u!1 &1144005052
GameObject:
  m_ObjectHideFlags: 0
  m_CorrespondingSourceObject: {fileID: 0}
  m_PrefabInstance: {fileID: 0}
  m_PrefabAsset: {fileID: 0}
  serializedVersion: 6
  m_Component:
  - component: {fileID: 1144005053}
  - component: {fileID: 1144005054}
  m_Layer: 5
  m_Name: HighScores
  m_TagString: Untagged
  m_Icon: {fileID: 0}
  m_NavMeshLayer: 0
  m_StaticEditorFlags: 0
  m_IsActive: 1
--- !u!224 &1144005053
RectTransform:
  m_ObjectHideFlags: 0
  m_CorrespondingSourceObject: {fileID: 0}
  m_PrefabInstance: {fileID: 0}
  m_PrefabAsset: {fileID: 0}
  m_GameObject: {fileID: 1144005052}
  m_LocalRotation: {x: -0, y: -0, z: -0, w: 1}
  m_LocalPosition: {x: 0, y: 0, z: 0}
  m_LocalScale: {x: 1, y: 1, z: 1}
  m_Children:
  - {fileID: 968505977}
  - {fileID: 618321840}
  m_Father: {fileID: 1682269797}
  m_RootOrder: 3
  m_LocalEulerAnglesHint: {x: 0, y: 0, z: 0}
  m_AnchorMin: {x: 0.5, y: 0.5}
  m_AnchorMax: {x: 0.5, y: 0.5}
  m_AnchoredPosition: {x: 0, y: -240}
  m_SizeDelta: {x: 1080, y: 1280}
  m_Pivot: {x: 0.5, y: 0.5}
--- !u!114 &1144005054
MonoBehaviour:
  m_ObjectHideFlags: 0
  m_CorrespondingSourceObject: {fileID: 0}
  m_PrefabInstance: {fileID: 0}
  m_PrefabAsset: {fileID: 0}
  m_GameObject: {fileID: 1144005052}
  m_Enabled: 1
  m_EditorHideFlags: 0
  m_Script: {fileID: 11500000, guid: 59f8146938fff824cb5fd77236b75775, type: 3}
  m_Name: 
  m_EditorClassIdentifier: 
  m_Padding:
    m_Left: 0
    m_Right: 0
    m_Top: 0
    m_Bottom: 0
  m_ChildAlignment: 1
  m_Spacing: 50
  m_ChildForceExpandWidth: 0
  m_ChildForceExpandHeight: 0
  m_ChildControlWidth: 0
  m_ChildControlHeight: 0
  m_ChildScaleWidth: 0
  m_ChildScaleHeight: 0
  m_ReverseArrangement: 0
--- !u!1 &1560989788
GameObject:
  m_ObjectHideFlags: 0
  m_CorrespondingSourceObject: {fileID: 0}
  m_PrefabInstance: {fileID: 0}
  m_PrefabAsset: {fileID: 0}
  serializedVersion: 6
  m_Component:
  - component: {fileID: 1560989789}
  - component: {fileID: 1560989791}
  - component: {fileID: 1560989790}
  m_Layer: 5
  m_Name: GameTitle
  m_TagString: Untagged
  m_Icon: {fileID: 0}
  m_NavMeshLayer: 0
  m_StaticEditorFlags: 0
  m_IsActive: 1
--- !u!224 &1560989789
RectTransform:
  m_ObjectHideFlags: 0
  m_CorrespondingSourceObject: {fileID: 0}
  m_PrefabInstance: {fileID: 0}
  m_PrefabAsset: {fileID: 0}
  m_GameObject: {fileID: 1560989788}
  m_LocalRotation: {x: -0, y: -0, z: -0, w: 1}
  m_LocalPosition: {x: 0, y: 0, z: 0}
  m_LocalScale: {x: 1, y: 1, z: 1}
  m_Children: []
  m_Father: {fileID: 1682269797}
  m_RootOrder: 0
  m_LocalEulerAnglesHint: {x: 0, y: 0, z: 0}
  m_AnchorMin: {x: 0.5, y: 1}
  m_AnchorMax: {x: 0.5, y: 1}
  m_AnchoredPosition: {x: 0, y: -50}
  m_SizeDelta: {x: 1060, y: 275.57776}
  m_Pivot: {x: 0.5, y: 1}
--- !u!114 &1560989790
MonoBehaviour:
  m_ObjectHideFlags: 0
  m_CorrespondingSourceObject: {fileID: 0}
  m_PrefabInstance: {fileID: 0}
  m_PrefabAsset: {fileID: 0}
  m_GameObject: {fileID: 1560989788}
  m_Enabled: 1
  m_EditorHideFlags: 0
  m_Script: {fileID: 11500000, guid: f4688fdb7df04437aeb418b961361dc5, type: 3}
  m_Name: 
  m_EditorClassIdentifier: 
  m_Material: {fileID: 0}
  m_Color: {r: 1, g: 1, b: 1, a: 1}
  m_RaycastTarget: 1
  m_RaycastPadding: {x: 0, y: 0, z: 0, w: 0}
  m_Maskable: 1
  m_OnCullStateChanged:
    m_PersistentCalls:
      m_Calls: []
  m_text: LESS is MORE
  m_isRightToLeft: 0
  m_fontAsset: {fileID: 11400000, guid: 8f586378b4e144a9851e7b34d9b748ee, type: 2}
  m_sharedMaterial: {fileID: 2180264, guid: 8f586378b4e144a9851e7b34d9b748ee, type: 2}
  m_fontSharedMaterials: []
  m_fontMaterial: {fileID: 0}
  m_fontMaterials: []
  m_fontColor32:
    serializedVersion: 2
    rgba: 4294967295
  m_fontColor: {r: 1, g: 1, b: 1, a: 1}
  m_enableVertexGradient: 0
  m_colorMode: 3
  m_fontColorGradient:
    topLeft: {r: 1, g: 1, b: 1, a: 1}
    topRight: {r: 1, g: 1, b: 1, a: 1}
    bottomLeft: {r: 1, g: 1, b: 1, a: 1}
    bottomRight: {r: 1, g: 1, b: 1, a: 1}
  m_fontColorGradientPreset: {fileID: 0}
  m_spriteAsset: {fileID: 0}
  m_tintAllSprites: 0
  m_StyleSheet: {fileID: 0}
  m_TextStyleHashCode: -1183493901
  m_overrideHtmlColors: 0
  m_faceColor:
    serializedVersion: 2
    rgba: 4294967295
  m_fontSize: 155.55
  m_fontSizeBase: 130
  m_fontWeight: 400
  m_enableAutoSizing: 1
  m_fontSizeMin: 18
  m_fontSizeMax: 200
  m_fontStyle: 0
  m_HorizontalAlignment: 2
  m_VerticalAlignment: 512
  m_textAlignment: 65535
  m_characterSpacing: 0
  m_wordSpacing: 0
  m_lineSpacing: 0
  m_lineSpacingMax: 0
  m_paragraphSpacing: 0
  m_charWidthMaxAdj: 0
  m_enableWordWrapping: 0
  m_wordWrappingRatios: 0.4
  m_overflowMode: 0
  m_linkedTextComponent: {fileID: 0}
  parentLinkedComponent: {fileID: 0}
  m_enableKerning: 1
  m_enableExtraPadding: 0
  checkPaddingRequired: 0
  m_isRichText: 1
  m_parseCtrlCharacters: 1
  m_isOrthographic: 1
  m_isCullingEnabled: 0
  m_horizontalMapping: 0
  m_verticalMapping: 0
  m_uvLineOffset: 0
  m_geometrySortingOrder: 0
  m_IsTextObjectScaleStatic: 0
  m_VertexBufferAutoSizeReduction: 0
  m_useMaxVisibleDescender: 1
  m_pageToDisplay: 1
  m_margin: {x: 0, y: 0, z: 0, w: 0}
  m_isUsingLegacyAnimationComponent: 0
  m_isVolumetricText: 0
  m_hasFontAssetChanged: 0
  m_baseMaterial: {fileID: 0}
  m_maskOffset: {x: 0, y: 0, z: 0, w: 0}
--- !u!222 &1560989791
CanvasRenderer:
  m_ObjectHideFlags: 0
  m_CorrespondingSourceObject: {fileID: 0}
  m_PrefabInstance: {fileID: 0}
  m_PrefabAsset: {fileID: 0}
  m_GameObject: {fileID: 1560989788}
  m_CullTransparentMesh: 1
--- !u!1 &1682269793
GameObject:
  m_ObjectHideFlags: 0
  m_CorrespondingSourceObject: {fileID: 0}
  m_PrefabInstance: {fileID: 0}
  m_PrefabAsset: {fileID: 0}
  serializedVersion: 6
  m_Component:
  - component: {fileID: 1682269797}
  - component: {fileID: 1682269796}
  - component: {fileID: 1682269795}
  - component: {fileID: 1682269794}
  m_Layer: 5
  m_Name: Canvas
  m_TagString: Untagged
  m_Icon: {fileID: 0}
  m_NavMeshLayer: 0
  m_StaticEditorFlags: 0
  m_IsActive: 1
--- !u!114 &1682269794
MonoBehaviour:
  m_ObjectHideFlags: 0
  m_CorrespondingSourceObject: {fileID: 0}
  m_PrefabInstance: {fileID: 0}
  m_PrefabAsset: {fileID: 0}
  m_GameObject: {fileID: 1682269793}
  m_Enabled: 1
  m_EditorHideFlags: 0
  m_Script: {fileID: 11500000, guid: dc42784cf147c0c48a680349fa168899, type: 3}
  m_Name: 
  m_EditorClassIdentifier: 
  m_IgnoreReversedGraphics: 1
  m_BlockingObjects: 0
  m_BlockingMask:
    serializedVersion: 2
    m_Bits: 4294967295
--- !u!114 &1682269795
MonoBehaviour:
  m_ObjectHideFlags: 0
  m_CorrespondingSourceObject: {fileID: 0}
  m_PrefabInstance: {fileID: 0}
  m_PrefabAsset: {fileID: 0}
  m_GameObject: {fileID: 1682269793}
  m_Enabled: 1
  m_EditorHideFlags: 0
  m_Script: {fileID: 11500000, guid: 0cd44c1031e13a943bb63640046fad76, type: 3}
  m_Name: 
  m_EditorClassIdentifier: 
  m_UiScaleMode: 1
  m_ReferencePixelsPerUnit: 100
  m_ScaleFactor: 1
  m_ReferenceResolution: {x: 1080, y: 1920}
  m_ScreenMatchMode: 0
  m_MatchWidthOrHeight: 0
  m_PhysicalUnit: 3
  m_FallbackScreenDPI: 96
  m_DefaultSpriteDPI: 96
  m_DynamicPixelsPerUnit: 1
  m_PresetInfoIsWorld: 0
--- !u!223 &1682269796
Canvas:
  m_ObjectHideFlags: 0
  m_CorrespondingSourceObject: {fileID: 0}
  m_PrefabInstance: {fileID: 0}
  m_PrefabAsset: {fileID: 0}
  m_GameObject: {fileID: 1682269793}
  m_Enabled: 1
  serializedVersion: 3
  m_RenderMode: 0
  m_Camera: {fileID: 0}
  m_PlaneDistance: 100
  m_PixelPerfect: 0
  m_ReceivesEvents: 1
  m_OverrideSorting: 0
  m_OverridePixelPerfect: 0
  m_SortingBucketNormalizedSize: 0
  m_AdditionalShaderChannelsFlag: 25
  m_SortingLayerID: 0
  m_SortingOrder: 0
  m_TargetDisplay: 0
--- !u!224 &1682269797
RectTransform:
  m_ObjectHideFlags: 0
  m_CorrespondingSourceObject: {fileID: 0}
  m_PrefabInstance: {fileID: 0}
  m_PrefabAsset: {fileID: 0}
  m_GameObject: {fileID: 1682269793}
  m_LocalRotation: {x: 0, y: 0, z: 0, w: 1}
  m_LocalPosition: {x: 0, y: 0, z: 0}
  m_LocalScale: {x: 0, y: 0, z: 0}
  m_Children:
  - {fileID: 1560989789}
  - {fileID: 1735131686}
  - {fileID: 31621560}
  - {fileID: 1144005053}
  m_Father: {fileID: 0}
  m_RootOrder: 2
  m_LocalEulerAnglesHint: {x: 0, y: 0, z: 0}
  m_AnchorMin: {x: 0, y: 0}
  m_AnchorMax: {x: 0, y: 0}
  m_AnchoredPosition: {x: 0, y: 0}
  m_SizeDelta: {x: 0, y: 0}
  m_Pivot: {x: 0, y: 0}
--- !u!1 &1735131685
GameObject:
  m_ObjectHideFlags: 0
  m_CorrespondingSourceObject: {fileID: 0}
  m_PrefabInstance: {fileID: 0}
  m_PrefabAsset: {fileID: 0}
  serializedVersion: 6
  m_Component:
  - component: {fileID: 1735131686}
  - component: {fileID: 1735131688}
  - component: {fileID: 1735131687}
  - component: {fileID: 1735131689}
  m_Layer: 5
  m_Name: GoBackButton
  m_TagString: Untagged
  m_Icon: {fileID: 0}
  m_NavMeshLayer: 0
  m_StaticEditorFlags: 0
  m_IsActive: 1
--- !u!224 &1735131686
RectTransform:
  m_ObjectHideFlags: 0
  m_CorrespondingSourceObject: {fileID: 0}
  m_PrefabInstance: {fileID: 0}
  m_PrefabAsset: {fileID: 0}
  m_GameObject: {fileID: 1735131685}
  m_LocalRotation: {x: -0, y: -0, z: -0, w: 1}
  m_LocalPosition: {x: 0, y: 0, z: 0}
  m_LocalScale: {x: 1, y: 1, z: 1}
  m_Children: []
  m_Father: {fileID: 1682269797}
  m_RootOrder: 1
  m_LocalEulerAnglesHint: {x: 0, y: 0, z: 0}
  m_AnchorMin: {x: 0.5, y: 1}
  m_AnchorMax: {x: 0.5, y: 1}
  m_AnchoredPosition: {x: -400, y: -400}
  m_SizeDelta: {x: 100, y: 100}
  m_Pivot: {x: 0.5, y: 1}
--- !u!114 &1735131687
MonoBehaviour:
  m_ObjectHideFlags: 0
  m_CorrespondingSourceObject: {fileID: 0}
  m_PrefabInstance: {fileID: 0}
  m_PrefabAsset: {fileID: 0}
  m_GameObject: {fileID: 1735131685}
  m_Enabled: 1
  m_EditorHideFlags: 0
  m_Script: {fileID: 11500000, guid: f4688fdb7df04437aeb418b961361dc5, type: 3}
  m_Name: 
  m_EditorClassIdentifier: 
  m_Material: {fileID: 0}
  m_Color: {r: 1, g: 1, b: 1, a: 1}
  m_RaycastTarget: 1
  m_RaycastPadding: {x: 0, y: 0, z: 0, w: 0}
  m_Maskable: 1
  m_OnCullStateChanged:
    m_PersistentCalls:
      m_Calls: []
  m_text: <<
  m_isRightToLeft: 0
  m_fontAsset: {fileID: 11400000, guid: 125cb55b44b24c4393181402bc6200e6, type: 2}
  m_sharedMaterial: {fileID: 2100000, guid: f2dcf029949142e28b974630369c8b4e, type: 2}
  m_fontSharedMaterials: []
  m_fontMaterial: {fileID: 0}
  m_fontMaterials: []
  m_fontColor32:
    serializedVersion: 2
    rgba: 4288610494
  m_fontColor: {r: 0.74509805, g: 0, b: 0.6243668, a: 1}
  m_enableVertexGradient: 0
  m_colorMode: 3
  m_fontColorGradient:
    topLeft: {r: 1, g: 1, b: 1, a: 1}
    topRight: {r: 1, g: 1, b: 1, a: 1}
    bottomLeft: {r: 1, g: 1, b: 1, a: 1}
    bottomRight: {r: 1, g: 1, b: 1, a: 1}
  m_fontColorGradientPreset: {fileID: 0}
  m_spriteAsset: {fileID: 0}
  m_tintAllSprites: 0
  m_StyleSheet: {fileID: 0}
  m_TextStyleHashCode: -1183493901
  m_overrideHtmlColors: 0
  m_faceColor:
    serializedVersion: 2
    rgba: 4294967295
  m_fontSize: 94
  m_fontSizeBase: 24
  m_fontWeight: 400
  m_enableAutoSizing: 1
  m_fontSizeMin: 18
  m_fontSizeMax: 100
  m_fontStyle: 1
  m_HorizontalAlignment: 2
  m_VerticalAlignment: 512
  m_textAlignment: 65535
  m_characterSpacing: 10
  m_wordSpacing: 0
  m_lineSpacing: 0
  m_lineSpacingMax: 0
  m_paragraphSpacing: 0
  m_charWidthMaxAdj: 0
  m_enableWordWrapping: 1
  m_wordWrappingRatios: 0.4
  m_overflowMode: 0
  m_linkedTextComponent: {fileID: 0}
  parentLinkedComponent: {fileID: 0}
  m_enableKerning: 1
  m_enableExtraPadding: 0
  checkPaddingRequired: 0
  m_isRichText: 1
  m_parseCtrlCharacters: 1
  m_isOrthographic: 1
  m_isCullingEnabled: 0
  m_horizontalMapping: 0
  m_verticalMapping: 0
  m_uvLineOffset: 0
  m_geometrySortingOrder: 0
  m_IsTextObjectScaleStatic: 0
  m_VertexBufferAutoSizeReduction: 0
  m_useMaxVisibleDescender: 1
  m_pageToDisplay: 1
  m_margin: {x: 0, y: 0, z: 0, w: 0}
  m_isUsingLegacyAnimationComponent: 0
  m_isVolumetricText: 0
  m_hasFontAssetChanged: 0
  m_baseMaterial: {fileID: 0}
  m_maskOffset: {x: 0, y: 0, z: 0, w: 0}
--- !u!222 &1735131688
CanvasRenderer:
  m_ObjectHideFlags: 0
  m_CorrespondingSourceObject: {fileID: 0}
  m_PrefabInstance: {fileID: 0}
  m_PrefabAsset: {fileID: 0}
  m_GameObject: {fileID: 1735131685}
  m_CullTransparentMesh: 1
--- !u!114 &1735131689
MonoBehaviour:
  m_ObjectHideFlags: 0
  m_CorrespondingSourceObject: {fileID: 0}
  m_PrefabInstance: {fileID: 0}
  m_PrefabAsset: {fileID: 0}
  m_GameObject: {fileID: 1735131685}
  m_Enabled: 1
  m_EditorHideFlags: 0
  m_Script: {fileID: 11500000, guid: 4e29b1a8efbd4b44bb3f3716e73f07ff, type: 3}
  m_Name: 
  m_EditorClassIdentifier: 
  m_Navigation:
    m_Mode: 3
    m_WrapAround: 0
    m_SelectOnUp: {fileID: 0}
    m_SelectOnDown: {fileID: 0}
    m_SelectOnLeft: {fileID: 0}
    m_SelectOnRight: {fileID: 0}
  m_Transition: 1
  m_Colors:
    m_NormalColor: {r: 1, g: 1, b: 1, a: 1}
    m_HighlightedColor: {r: 0.9607843, g: 0.9607843, b: 0.9607843, a: 1}
    m_PressedColor: {r: 0.78431374, g: 0.78431374, b: 0.78431374, a: 1}
    m_SelectedColor: {r: 0.9607843, g: 0.9607843, b: 0.9607843, a: 1}
    m_DisabledColor: {r: 0.78431374, g: 0.78431374, b: 0.78431374, a: 0.5019608}
    m_ColorMultiplier: 1
    m_FadeDuration: 0.1
  m_SpriteState:
    m_HighlightedSprite: {fileID: 0}
    m_PressedSprite: {fileID: 0}
    m_SelectedSprite: {fileID: 0}
    m_DisabledSprite: {fileID: 0}
  m_AnimationTriggers:
    m_NormalTrigger: Normal
    m_HighlightedTrigger: Highlighted
    m_PressedTrigger: Pressed
    m_SelectedTrigger: Selected
    m_DisabledTrigger: Disabled
  m_Interactable: 1
  m_TargetGraphic: {fileID: 1735131687}
  m_OnClick:
    m_PersistentCalls:
      m_Calls:
      - m_Target: {fileID: 322100318}
        m_TargetAssemblyTypeName: HighScoresManager, Assembly-CSharp
        m_MethodName: ExitToMainMenu
        m_Mode: 1
        m_Arguments:
          m_ObjectArgument: {fileID: 0}
          m_ObjectArgumentAssemblyTypeName: UnityEngine.Object, UnityEngine
          m_IntArgument: 0
          m_FloatArgument: 0
          m_StringArgument: 
          m_BoolArgument: 0
        m_CallState: 2
--- !u!1001 &3170790304499735945
PrefabInstance:
  m_ObjectHideFlags: 0
  serializedVersion: 2
  m_Modification:
    m_TransformParent: {fileID: 1144005053}
    m_Modifications:
    - target: {fileID: 3170790302555782461, guid: 19148bcfa67daa144b7d8b5c25b66bd8, type: 3}
      propertyPath: m_AnchorMax.y
      value: 0
      objectReference: {fileID: 0}
    - target: {fileID: 3170790302555782461, guid: 19148bcfa67daa144b7d8b5c25b66bd8, type: 3}
      propertyPath: m_AnchorMin.y
      value: 0
      objectReference: {fileID: 0}
    - target: {fileID: 3170790302555782461, guid: 19148bcfa67daa144b7d8b5c25b66bd8, type: 3}
      propertyPath: m_SizeDelta.y
      value: 0
      objectReference: {fileID: 0}
    - target: {fileID: 3170790302555782461, guid: 19148bcfa67daa144b7d8b5c25b66bd8, type: 3}
      propertyPath: m_AnchoredPosition.x
      value: 0
      objectReference: {fileID: 0}
    - target: {fileID: 3170790302555782461, guid: 19148bcfa67daa144b7d8b5c25b66bd8, type: 3}
      propertyPath: m_AnchoredPosition.y
      value: 0
      objectReference: {fileID: 0}
    - target: {fileID: 3170790302708483975, guid: 19148bcfa67daa144b7d8b5c25b66bd8, type: 3}
      propertyPath: m_AnchorMax.y
      value: 0
      objectReference: {fileID: 0}
    - target: {fileID: 3170790302708483975, guid: 19148bcfa67daa144b7d8b5c25b66bd8, type: 3}
      propertyPath: m_AnchorMin.y
      value: 0
      objectReference: {fileID: 0}
    - target: {fileID: 3170790302708483975, guid: 19148bcfa67daa144b7d8b5c25b66bd8, type: 3}
      propertyPath: m_SizeDelta.y
      value: 0
      objectReference: {fileID: 0}
    - target: {fileID: 3170790302708483975, guid: 19148bcfa67daa144b7d8b5c25b66bd8, type: 3}
      propertyPath: m_AnchoredPosition.x
      value: 0
      objectReference: {fileID: 0}
    - target: {fileID: 3170790302708483975, guid: 19148bcfa67daa144b7d8b5c25b66bd8, type: 3}
      propertyPath: m_AnchoredPosition.y
      value: 0
      objectReference: {fileID: 0}
    - target: {fileID: 3170790302760883277, guid: 19148bcfa67daa144b7d8b5c25b66bd8, type: 3}
      propertyPath: m_AnchorMax.y
      value: 0
      objectReference: {fileID: 0}
    - target: {fileID: 3170790302760883277, guid: 19148bcfa67daa144b7d8b5c25b66bd8, type: 3}
      propertyPath: m_AnchorMin.y
      value: 0
      objectReference: {fileID: 0}
    - target: {fileID: 3170790302760883277, guid: 19148bcfa67daa144b7d8b5c25b66bd8, type: 3}
      propertyPath: m_AnchoredPosition.x
      value: 0
      objectReference: {fileID: 0}
    - target: {fileID: 3170790302760883277, guid: 19148bcfa67daa144b7d8b5c25b66bd8, type: 3}
      propertyPath: m_AnchoredPosition.y
      value: 0
      objectReference: {fileID: 0}
    - target: {fileID: 3170790302827436140, guid: 19148bcfa67daa144b7d8b5c25b66bd8, type: 3}
      propertyPath: m_AnchorMax.y
      value: 0
      objectReference: {fileID: 0}
    - target: {fileID: 3170790302827436140, guid: 19148bcfa67daa144b7d8b5c25b66bd8, type: 3}
      propertyPath: m_AnchorMin.y
      value: 0
      objectReference: {fileID: 0}
    - target: {fileID: 3170790302827436140, guid: 19148bcfa67daa144b7d8b5c25b66bd8, type: 3}
      propertyPath: m_SizeDelta.y
      value: 0
      objectReference: {fileID: 0}
    - target: {fileID: 3170790302827436140, guid: 19148bcfa67daa144b7d8b5c25b66bd8, type: 3}
      propertyPath: m_AnchoredPosition.x
      value: 0
      objectReference: {fileID: 0}
    - target: {fileID: 3170790302827436140, guid: 19148bcfa67daa144b7d8b5c25b66bd8, type: 3}
      propertyPath: m_AnchoredPosition.y
      value: 0
      objectReference: {fileID: 0}
    - target: {fileID: 3170790302920063591, guid: 19148bcfa67daa144b7d8b5c25b66bd8, type: 3}
      propertyPath: m_AnchorMax.y
      value: 0
      objectReference: {fileID: 0}
    - target: {fileID: 3170790302920063591, guid: 19148bcfa67daa144b7d8b5c25b66bd8, type: 3}
      propertyPath: m_AnchorMin.y
      value: 0
      objectReference: {fileID: 0}
    - target: {fileID: 3170790302920063591, guid: 19148bcfa67daa144b7d8b5c25b66bd8, type: 3}
      propertyPath: m_AnchoredPosition.x
      value: 0
      objectReference: {fileID: 0}
    - target: {fileID: 3170790302920063591, guid: 19148bcfa67daa144b7d8b5c25b66bd8, type: 3}
      propertyPath: m_AnchoredPosition.y
      value: 0
      objectReference: {fileID: 0}
    - target: {fileID: 3170790303373253517, guid: 19148bcfa67daa144b7d8b5c25b66bd8, type: 3}
      propertyPath: m_AnchorMax.y
      value: 0
      objectReference: {fileID: 0}
    - target: {fileID: 3170790303373253517, guid: 19148bcfa67daa144b7d8b5c25b66bd8, type: 3}
      propertyPath: m_AnchorMin.y
      value: 0
      objectReference: {fileID: 0}
    - target: {fileID: 3170790303373253517, guid: 19148bcfa67daa144b7d8b5c25b66bd8, type: 3}
      propertyPath: m_AnchoredPosition.x
      value: 0
      objectReference: {fileID: 0}
    - target: {fileID: 3170790303457225850, guid: 19148bcfa67daa144b7d8b5c25b66bd8, type: 3}
      propertyPath: m_AnchorMax.y
      value: 0
      objectReference: {fileID: 0}
    - target: {fileID: 3170790303457225850, guid: 19148bcfa67daa144b7d8b5c25b66bd8, type: 3}
      propertyPath: m_AnchorMin.y
      value: 0
      objectReference: {fileID: 0}
    - target: {fileID: 3170790303457225850, guid: 19148bcfa67daa144b7d8b5c25b66bd8, type: 3}
      propertyPath: m_SizeDelta.y
      value: 0
      objectReference: {fileID: 0}
    - target: {fileID: 3170790303457225850, guid: 19148bcfa67daa144b7d8b5c25b66bd8, type: 3}
      propertyPath: m_AnchoredPosition.x
      value: 0
      objectReference: {fileID: 0}
    - target: {fileID: 3170790303457225850, guid: 19148bcfa67daa144b7d8b5c25b66bd8, type: 3}
      propertyPath: m_AnchoredPosition.y
      value: 0
      objectReference: {fileID: 0}
    - target: {fileID: 3170790303566112752, guid: 19148bcfa67daa144b7d8b5c25b66bd8, type: 3}
      propertyPath: m_Pivot.x
      value: 0.5
      objectReference: {fileID: 0}
    - target: {fileID: 3170790303566112752, guid: 19148bcfa67daa144b7d8b5c25b66bd8, type: 3}
      propertyPath: m_Pivot.y
      value: 0.5
      objectReference: {fileID: 0}
    - target: {fileID: 3170790303566112752, guid: 19148bcfa67daa144b7d8b5c25b66bd8, type: 3}
      propertyPath: m_RootOrder
      value: 0
      objectReference: {fileID: 0}
    - target: {fileID: 3170790303566112752, guid: 19148bcfa67daa144b7d8b5c25b66bd8, type: 3}
      propertyPath: m_AnchorMax.x
      value: 0
      objectReference: {fileID: 0}
    - target: {fileID: 3170790303566112752, guid: 19148bcfa67daa144b7d8b5c25b66bd8, type: 3}
      propertyPath: m_AnchorMax.y
      value: 0
      objectReference: {fileID: 0}
    - target: {fileID: 3170790303566112752, guid: 19148bcfa67daa144b7d8b5c25b66bd8, type: 3}
      propertyPath: m_AnchorMin.x
      value: 0
      objectReference: {fileID: 0}
    - target: {fileID: 3170790303566112752, guid: 19148bcfa67daa144b7d8b5c25b66bd8, type: 3}
      propertyPath: m_AnchorMin.y
      value: 0
      objectReference: {fileID: 0}
    - target: {fileID: 3170790303566112752, guid: 19148bcfa67daa144b7d8b5c25b66bd8, type: 3}
      propertyPath: m_SizeDelta.x
      value: 1080
      objectReference: {fileID: 0}
    - target: {fileID: 3170790303566112752, guid: 19148bcfa67daa144b7d8b5c25b66bd8, type: 3}
      propertyPath: m_SizeDelta.y
      value: 650
      objectReference: {fileID: 0}
    - target: {fileID: 3170790303566112752, guid: 19148bcfa67daa144b7d8b5c25b66bd8, type: 3}
      propertyPath: m_LocalPosition.x
      value: 0
      objectReference: {fileID: 0}
    - target: {fileID: 3170790303566112752, guid: 19148bcfa67daa144b7d8b5c25b66bd8, type: 3}
      propertyPath: m_LocalPosition.y
      value: 0
      objectReference: {fileID: 0}
    - target: {fileID: 3170790303566112752, guid: 19148bcfa67daa144b7d8b5c25b66bd8, type: 3}
      propertyPath: m_LocalPosition.z
      value: 0
      objectReference: {fileID: 0}
    - target: {fileID: 3170790303566112752, guid: 19148bcfa67daa144b7d8b5c25b66bd8, type: 3}
      propertyPath: m_LocalRotation.w
      value: 1
      objectReference: {fileID: 0}
    - target: {fileID: 3170790303566112752, guid: 19148bcfa67daa144b7d8b5c25b66bd8, type: 3}
      propertyPath: m_LocalRotation.x
      value: 0
      objectReference: {fileID: 0}
    - target: {fileID: 3170790303566112752, guid: 19148bcfa67daa144b7d8b5c25b66bd8, type: 3}
      propertyPath: m_LocalRotation.y
      value: 0
      objectReference: {fileID: 0}
    - target: {fileID: 3170790303566112752, guid: 19148bcfa67daa144b7d8b5c25b66bd8, type: 3}
      propertyPath: m_LocalRotation.z
      value: 0
      objectReference: {fileID: 0}
    - target: {fileID: 3170790303566112752, guid: 19148bcfa67daa144b7d8b5c25b66bd8, type: 3}
      propertyPath: m_AnchoredPosition.x
      value: 0
      objectReference: {fileID: 0}
    - target: {fileID: 3170790303566112752, guid: 19148bcfa67daa144b7d8b5c25b66bd8, type: 3}
      propertyPath: m_AnchoredPosition.y
      value: 0
      objectReference: {fileID: 0}
    - target: {fileID: 3170790303566112752, guid: 19148bcfa67daa144b7d8b5c25b66bd8, type: 3}
      propertyPath: m_LocalEulerAnglesHint.x
      value: 0
      objectReference: {fileID: 0}
    - target: {fileID: 3170790303566112752, guid: 19148bcfa67daa144b7d8b5c25b66bd8, type: 3}
      propertyPath: m_LocalEulerAnglesHint.y
      value: 0
      objectReference: {fileID: 0}
    - target: {fileID: 3170790303566112752, guid: 19148bcfa67daa144b7d8b5c25b66bd8, type: 3}
      propertyPath: m_LocalEulerAnglesHint.z
      value: 0
      objectReference: {fileID: 0}
    - target: {fileID: 3170790303566112753, guid: 19148bcfa67daa144b7d8b5c25b66bd8, type: 3}
      propertyPath: m_Name
      value: TimedSection
      objectReference: {fileID: 0}
    - target: {fileID: 3170790303601721649, guid: 19148bcfa67daa144b7d8b5c25b66bd8, type: 3}
      propertyPath: m_AnchorMax.y
      value: 0
      objectReference: {fileID: 0}
    - target: {fileID: 3170790303601721649, guid: 19148bcfa67daa144b7d8b5c25b66bd8, type: 3}
      propertyPath: m_AnchorMin.y
      value: 0
      objectReference: {fileID: 0}
    - target: {fileID: 3170790303601721649, guid: 19148bcfa67daa144b7d8b5c25b66bd8, type: 3}
      propertyPath: m_SizeDelta.y
      value: 0
      objectReference: {fileID: 0}
    - target: {fileID: 3170790303601721649, guid: 19148bcfa67daa144b7d8b5c25b66bd8, type: 3}
      propertyPath: m_AnchoredPosition.x
      value: 0
      objectReference: {fileID: 0}
    - target: {fileID: 3170790303601721649, guid: 19148bcfa67daa144b7d8b5c25b66bd8, type: 3}
      propertyPath: m_AnchoredPosition.y
      value: 0
      objectReference: {fileID: 0}
    - target: {fileID: 3170790303757151173, guid: 19148bcfa67daa144b7d8b5c25b66bd8, type: 3}
      propertyPath: m_AnchorMax.y
      value: 0
      objectReference: {fileID: 0}
    - target: {fileID: 3170790303757151173, guid: 19148bcfa67daa144b7d8b5c25b66bd8, type: 3}
      propertyPath: m_AnchorMin.y
      value: 0
      objectReference: {fileID: 0}
    - target: {fileID: 3170790303757151173, guid: 19148bcfa67daa144b7d8b5c25b66bd8, type: 3}
      propertyPath: m_SizeDelta.y
      value: 0
      objectReference: {fileID: 0}
    - target: {fileID: 3170790303757151173, guid: 19148bcfa67daa144b7d8b5c25b66bd8, type: 3}
      propertyPath: m_AnchoredPosition.x
      value: 0
      objectReference: {fileID: 0}
    - target: {fileID: 3170790303757151173, guid: 19148bcfa67daa144b7d8b5c25b66bd8, type: 3}
      propertyPath: m_AnchoredPosition.y
      value: 0
      objectReference: {fileID: 0}
    - target: {fileID: 3170790303764894439, guid: 19148bcfa67daa144b7d8b5c25b66bd8, type: 3}
      propertyPath: m_AnchorMax.y
      value: 0
      objectReference: {fileID: 0}
    - target: {fileID: 3170790303764894439, guid: 19148bcfa67daa144b7d8b5c25b66bd8, type: 3}
      propertyPath: m_AnchorMin.y
      value: 0
      objectReference: {fileID: 0}
    - target: {fileID: 3170790303764894439, guid: 19148bcfa67daa144b7d8b5c25b66bd8, type: 3}
      propertyPath: m_SizeDelta.y
      value: 0
      objectReference: {fileID: 0}
    - target: {fileID: 3170790303764894439, guid: 19148bcfa67daa144b7d8b5c25b66bd8, type: 3}
      propertyPath: m_AnchoredPosition.x
      value: 0
      objectReference: {fileID: 0}
    - target: {fileID: 3170790303764894439, guid: 19148bcfa67daa144b7d8b5c25b66bd8, type: 3}
      propertyPath: m_AnchoredPosition.y
      value: 0
      objectReference: {fileID: 0}
    - target: {fileID: 3170790303780371862, guid: 19148bcfa67daa144b7d8b5c25b66bd8, type: 3}
      propertyPath: m_AnchorMax.y
      value: 0
      objectReference: {fileID: 0}
    - target: {fileID: 3170790303780371862, guid: 19148bcfa67daa144b7d8b5c25b66bd8, type: 3}
      propertyPath: m_AnchorMin.y
      value: 0
      objectReference: {fileID: 0}
    - target: {fileID: 3170790303780371862, guid: 19148bcfa67daa144b7d8b5c25b66bd8, type: 3}
      propertyPath: m_AnchoredPosition.x
      value: 0
      objectReference: {fileID: 0}
    - target: {fileID: 3170790303780371862, guid: 19148bcfa67daa144b7d8b5c25b66bd8, type: 3}
      propertyPath: m_AnchoredPosition.y
      value: 0
      objectReference: {fileID: 0}
    - target: {fileID: 3170790303799051240, guid: 19148bcfa67daa144b7d8b5c25b66bd8, type: 3}
      propertyPath: m_AnchorMax.y
      value: 0
      objectReference: {fileID: 0}
    - target: {fileID: 3170790303799051240, guid: 19148bcfa67daa144b7d8b5c25b66bd8, type: 3}
      propertyPath: m_AnchorMin.y
      value: 0
      objectReference: {fileID: 0}
    - target: {fileID: 3170790303799051240, guid: 19148bcfa67daa144b7d8b5c25b66bd8, type: 3}
      propertyPath: m_SizeDelta.y
      value: 0
      objectReference: {fileID: 0}
    - target: {fileID: 3170790303799051240, guid: 19148bcfa67daa144b7d8b5c25b66bd8, type: 3}
      propertyPath: m_AnchoredPosition.x
      value: 0
      objectReference: {fileID: 0}
    - target: {fileID: 3170790303799051240, guid: 19148bcfa67daa144b7d8b5c25b66bd8, type: 3}
      propertyPath: m_AnchoredPosition.y
      value: 0
      objectReference: {fileID: 0}
    - target: {fileID: 3170790303828745748, guid: 19148bcfa67daa144b7d8b5c25b66bd8, type: 3}
      propertyPath: m_AnchorMax.y
      value: 0
      objectReference: {fileID: 0}
    - target: {fileID: 3170790303828745748, guid: 19148bcfa67daa144b7d8b5c25b66bd8, type: 3}
      propertyPath: m_AnchorMin.y
      value: 0
      objectReference: {fileID: 0}
    - target: {fileID: 3170790303828745748, guid: 19148bcfa67daa144b7d8b5c25b66bd8, type: 3}
      propertyPath: m_SizeDelta.x
      value: 0
      objectReference: {fileID: 0}
    - target: {fileID: 3170790303828745748, guid: 19148bcfa67daa144b7d8b5c25b66bd8, type: 3}
      propertyPath: m_SizeDelta.y
      value: 0
      objectReference: {fileID: 0}
    - target: {fileID: 3170790303828745748, guid: 19148bcfa67daa144b7d8b5c25b66bd8, type: 3}
      propertyPath: m_AnchoredPosition.x
      value: 0
      objectReference: {fileID: 0}
    - target: {fileID: 3170790303828745751, guid: 19148bcfa67daa144b7d8b5c25b66bd8, type: 3}
      propertyPath: m_text
      value: TIMED
      objectReference: {fileID: 0}
    - target: {fileID: 3170790303853519821, guid: 19148bcfa67daa144b7d8b5c25b66bd8, type: 3}
      propertyPath: m_AnchorMax.y
      value: 0
      objectReference: {fileID: 0}
    - target: {fileID: 3170790303853519821, guid: 19148bcfa67daa144b7d8b5c25b66bd8, type: 3}
      propertyPath: m_AnchorMin.y
      value: 0
      objectReference: {fileID: 0}
    - target: {fileID: 3170790303853519821, guid: 19148bcfa67daa144b7d8b5c25b66bd8, type: 3}
      propertyPath: m_SizeDelta.y
      value: 0
      objectReference: {fileID: 0}
    - target: {fileID: 3170790303853519821, guid: 19148bcfa67daa144b7d8b5c25b66bd8, type: 3}
      propertyPath: m_AnchoredPosition.x
      value: 0
      objectReference: {fileID: 0}
    - target: {fileID: 3170790303853519821, guid: 19148bcfa67daa144b7d8b5c25b66bd8, type: 3}
      propertyPath: m_AnchoredPosition.y
      value: 0
      objectReference: {fileID: 0}
    - target: {fileID: 3170790304420650369, guid: 19148bcfa67daa144b7d8b5c25b66bd8, type: 3}
      propertyPath: m_AnchorMax.y
      value: 0
      objectReference: {fileID: 0}
    - target: {fileID: 3170790304420650369, guid: 19148bcfa67daa144b7d8b5c25b66bd8, type: 3}
      propertyPath: m_AnchorMin.y
      value: 0
      objectReference: {fileID: 0}
    - target: {fileID: 3170790304420650369, guid: 19148bcfa67daa144b7d8b5c25b66bd8, type: 3}
      propertyPath: m_SizeDelta.y
      value: 0
      objectReference: {fileID: 0}
    - target: {fileID: 3170790304420650369, guid: 19148bcfa67daa144b7d8b5c25b66bd8, type: 3}
      propertyPath: m_AnchoredPosition.x
      value: 0
      objectReference: {fileID: 0}
    - target: {fileID: 3170790304420650369, guid: 19148bcfa67daa144b7d8b5c25b66bd8, type: 3}
      propertyPath: m_AnchoredPosition.y
      value: 0
      objectReference: {fileID: 0}
    - target: {fileID: 3170790304445810151, guid: 19148bcfa67daa144b7d8b5c25b66bd8, type: 3}
      propertyPath: m_AnchorMax.y
      value: 0
      objectReference: {fileID: 0}
    - target: {fileID: 3170790304445810151, guid: 19148bcfa67daa144b7d8b5c25b66bd8, type: 3}
      propertyPath: m_AnchorMin.y
      value: 0
      objectReference: {fileID: 0}
    - target: {fileID: 3170790304445810151, guid: 19148bcfa67daa144b7d8b5c25b66bd8, type: 3}
      propertyPath: m_SizeDelta.x
      value: 0
      objectReference: {fileID: 0}
    - target: {fileID: 3170790304445810151, guid: 19148bcfa67daa144b7d8b5c25b66bd8, type: 3}
      propertyPath: m_SizeDelta.y
      value: 0
      objectReference: {fileID: 0}
    - target: {fileID: 3170790304445810151, guid: 19148bcfa67daa144b7d8b5c25b66bd8, type: 3}
      propertyPath: m_AnchoredPosition.x
      value: 0
      objectReference: {fileID: 0}
    - target: {fileID: 3170790304445810151, guid: 19148bcfa67daa144b7d8b5c25b66bd8, type: 3}
      propertyPath: m_AnchoredPosition.y
      value: 0
      objectReference: {fileID: 0}
    - target: {fileID: 3170790304518705313, guid: 19148bcfa67daa144b7d8b5c25b66bd8, type: 3}
      propertyPath: m_AnchorMax.y
      value: 0
      objectReference: {fileID: 0}
    - target: {fileID: 3170790304518705313, guid: 19148bcfa67daa144b7d8b5c25b66bd8, type: 3}
      propertyPath: m_AnchorMin.y
      value: 0
      objectReference: {fileID: 0}
    - target: {fileID: 3170790304518705313, guid: 19148bcfa67daa144b7d8b5c25b66bd8, type: 3}
      propertyPath: m_AnchoredPosition.x
      value: 0
      objectReference: {fileID: 0}
    - target: {fileID: 3170790304518705313, guid: 19148bcfa67daa144b7d8b5c25b66bd8, type: 3}
      propertyPath: m_AnchoredPosition.y
      value: 0
      objectReference: {fileID: 0}
    m_RemovedComponents: []
  m_SourcePrefab: {fileID: 100100000, guid: 19148bcfa67daa144b7d8b5c25b66bd8, type: 3}
